<svg width="16" height="12" viewBox="0 0 16 12" fill="none" xmlns="http://www.w3.org/2000/svg">
<path d="M10.2692 9.25982C10.1554 9.37775 10.0924 9.53566 10.094 9.69953C10.0955 9.8634 10.1613 10.0201 10.2772 10.136C10.3931 10.2518 10.5499 10.3174 10.7138 10.3188C10.8777 10.3201 11.0355 10.2571 11.1533 10.1432L15.3175 5.97399C15.4345 5.8568 15.5003 5.69794 15.5003 5.53232C15.5003 5.36669 15.4345 5.20784 15.3175 5.09065L11.1525 0.925652C11.0347 0.811747 10.8768 0.748675 10.713 0.750021C10.5491 0.751367 10.3923 0.817024 10.2764 0.93285C10.1604 1.04868 10.0946 1.2054 10.0931 1.36928C10.0916 1.53315 10.1545 1.69106 10.2683 1.80899L13.3683 4.90899H6.83333C5.50417 4.90899 4.49167 5.11065 3.5925 5.54565L3.3875 5.65065C2.47318 6.13518 1.72536 6.883 1.24083 7.79732C0.733333 8.74732 0.5 9.81232 0.5 11.2423C0.5 11.4081 0.565848 11.5671 0.683058 11.6843C0.800268 11.8015 0.95924 11.8673 1.125 11.8673C1.29076 11.8673 1.44973 11.8015 1.56694 11.6843C1.68415 11.5671 1.75 11.4081 1.75 11.2423C1.75 10.0057 1.94 9.14232 2.34417 8.38565C2.71212 7.68945 3.2813 7.12027 3.9775 6.75232C4.675 6.37899 5.46583 6.18899 6.55583 6.16149L6.83417 6.15815H13.365L10.2692 9.25898V9.25982Z" fill="#2C2C2C"/>
</svg>
