<svg width="6" height="12" viewBox="0 0 6 12" fill="none" xmlns="http://www.w3.org/2000/svg">
<path d="M0.75 11.25L5.25 6L0.75 0.75" stroke="#637381" stroke-width="1.2" stroke-linecap="round" stroke-linejoin="round"/>
</svg>
