<svg width="20" height="20" viewBox="0 0 20 20" fill="none" xmlns="http://www.w3.org/2000/svg">
<path d="M17.1582 11.1763L11.1832 17.1513C11.0284 17.3063 10.8446 17.4292 10.6422 17.5131C10.4399 17.5969 10.223 17.6401 10.004 17.6401C9.78498 17.6401 9.5681 17.5969 9.36577 17.5131C9.16344 17.4292 8.97963 17.3063 8.82484 17.1513L1.6665 10.0013V1.66797H9.99984L17.1582 8.8263C17.4686 9.13857 17.6428 9.56099 17.6428 10.0013C17.6428 10.4416 17.4686 10.864 17.1582 11.1763V11.1763Z" stroke="#A9A9A9" stroke-width="2" stroke-linecap="round" stroke-linejoin="round"/>
<path d="M5.8335 5.83203H5.84183" stroke="#A9A9A9" stroke-width="2" stroke-linecap="round" stroke-linejoin="round"/>
</svg>
