<svg width="33" height="32" viewBox="0 0 33 32" fill="none" xmlns="http://www.w3.org/2000/svg">
<path d="M9.05637 25.5076C10.4604 26.2168 12.0121 26.5843 13.5851 26.5802C16.1421 26.5752 21.6543 25.152 23.2466 19.4991C23.5587 18.5163 23.7177 17.4879 23.715 16.4503V15.8544C23.578 13.3704 22.5295 11.0242 20.7703 9.26501C19.0112 7.50586 16.665 6.45739 14.1809 6.32035H13.5851C12.0121 6.31625 10.4604 6.68375 9.05637 7.39293C7.37392 8.23379 5.95879 9.52647 4.9695 11.1262C3.98021 12.7259 3.45584 14.5694 3.45511 16.4503C3.45101 18.0233 3.81852 19.5749 4.52769 20.979V24.8933C4.52769 24.8933 4.31797 25.7384 5.32072 25.8684L9.05637 25.5076Z" stroke="#252424" stroke-width="1.5" stroke-linecap="round" stroke-linejoin="round"/>
<path d="M19.4149 5.42191C20.9879 5.41781 22.5396 5.78531 23.9436 6.49449C25.6261 7.33536 27.0412 8.62803 28.0305 10.2277C29.0198 11.8274 29.5442 13.671 29.5449 15.5519C29.549 17.1248 29.1815 18.6765 28.4723 20.0805V23.9948C28.4723 23.9948 28.682 24.8399 27.6793 24.9699L23.9436 24.6092C23.3352 24.9165 22.6991 25.1597 22.0455 25.3362" stroke="#252424" stroke-width="1.5" stroke-linecap="round" stroke-linejoin="round"/>
</svg>
